{
    "type": "postgres",
    "host": "localhost",
    "port": 5432,
    "username": "ali",
    "password": "ali",
    "database": "todo_list",
    "synchronize": true,
    "logging": false,
    "logger": "file",
    "entities": [
       "src/**/entity/**/*.ts"
    ]
 }